{
  "project_info": {
    "project_number": "478793471750",
    "firebase_url": "https://c-o-m-m-i-t.firebaseio.com",
    "project_id": "c-o-m-m-i-t",
    "storage_bucket": "c-o-m-m-i-t.appspot.com"
  },
  "client": [
    {
      "client_info": {
        "mobilesdk_app_id": "1:478793471750:android:581c9b5ebd03e7cd",
        "android_client_info": {
          "package_name": "com.axys.commit"
        }
      },
      "oauth_client": [
        {
          "client_id": "478793471750-gjgsv6pj3vm2b5nv82r88tet2s9t5hjb.apps.googleusercontent.com",
          "client_type": 1,
          "android_info": {
            "package_name": "com.axys.commit",
            "certificate_hash": "4758d7c70a1e3225f79f58dbbb317db0c14babf9"
          }
        },
        {
          "client_id": "478793471750-5ruo33kags3601ao5ge2v5bs8153ocps.apps.googleusercontent.com",
          "client_type": 3
        }
      ],
      "api_key": [
        {
          "current_key": "AIzaSyAVUVSwxy_pqnqUNjtaCHbTWH4NNsm64Qs"
        }
      ],
      "services": {
        "analytics_service": {
          "status": 1
        },
        "appinvite_service": {
          "status": 2,
          "other_platform_oauth_client": [
            {
              "client_id": "478793471750-5ruo33kags3601ao5ge2v5bs8153ocps.apps.googleusercontent.com",
              "client_type": 3
            }
          ]
        },
        "ads_service": {
          "status": 2
        }
      }
    }
  ],
  "configuration_version": "1"
}